{
  "success": true,
  "message": "string",
  "stackTrace": "string",
  "messageTemplate": "string",
  "path": "string",
  "invalidValue": "string",
  "messageInfo": "string",
  "total": 55,
  "page": 111111111111,
  "totalPage": 97,
  "imageContainerLoadDto": [
    {
      "id": 16,
      "driverId": "string",
      "imageUuid": "string",
      "imagePath": "string",
      "status": "string",
      "failReason": "string",
      "ediReceipt": "string",
      "blNo": "string",
      "containerNumber": "1",
      "creationTime": "3",
      "lastUpdateTime": "4",
      "thumbImagePath": "5",
      "recorderMobilePhone": "6"
    },
    {
      "id": 16,
      "driverId": "string",
      "imageUuid": "string",
      "imagePath": "string",
      "status": "string",
      "failReason": "string",
      "ediReceipt": "string",
      "blNo": "string",
      "containerNumber": "1",
      "creationTime": "3",
      "lastUpdateTime": "4",
      "thumbImagePath": "5",
      "recorderMobilePhone": "6"
    }
  ]
}